%YAML 1.1
%TAG !u! tag:unity3d.com,2011:
--- !u!65 &8697068420226325163
BoxCollider:
  m_ObjectHideFlags: 0
  m_CorrespondingSourceObject: {fileID: 0}
  m_PrefabInstance: {fileID: 0}
  m_PrefabAsset: {fileID: 0}
  m_GameObject: {fileID: 3674117385494972138}
  m_Material: {fileID: 0}
  m_IsTrigger: 0
  m_Enabled: 1
  serializedVersion: 2
  m_Size: {x: 0.062785394, y: 0.05479346, z: 0.052374538}
  m_Center: {x: 0.0009313817, y: 0.0008080689, z: 0.018274559}
--- !u!1001 &8553520497343471046
PrefabInstance:
  m_ObjectHideFlags: 0
  serializedVersion: 2
  m_Modification:
    m_TransformParent: {fileID: 0}
    m_Modifications:
    - target: {fileID: 4887314735809503889, guid: 2c0b2c26c272418429d3bbcb3dafab7b,
        type: 3}
      propertyPath: m_LocalPosition.x
      value: 29.8
      objectReference: {fileID: 0}
    - target: {fileID: 4887314735809503889, guid: 2c0b2c26c272418429d3bbcb3dafab7b,
        type: 3}
      propertyPath: m_LocalPosition.y
      value: 24.93
      objectReference: {fileID: 0}
    - target: {fileID: 4887314735809503889, guid: 2c0b2c26c272418429d3bbcb3dafab7b,
        type: 3}
      propertyPath: m_LocalPosition.z
      value: -236.09
      objectReference: {fileID: 0}
    - target: {fileID: 4887314735809503889, guid: 2c0b2c26c272418429d3bbcb3dafab7b,
        type: 3}
      propertyPath: m_LocalRotation.x
      value: -0.0000013783574
      objectReference: {fileID: 0}
    - target: {fileID: 4887314735809503889, guid: 2c0b2c26c272418429d3bbcb3dafab7b,
        type: 3}
      propertyPath: m_LocalRotation.y
      value: -0.7071068
      objectReference: {fileID: 0}
    - target: {fileID: 4887314735809503889, guid: 2c0b2c26c272418429d3bbcb3dafab7b,
        type: 3}
      propertyPath: m_LocalRotation.z
      value: -0.7071068
      objectReference: {fileID: 0}
    - target: {fileID: 4887314735809503889, guid: 2c0b2c26c272418429d3bbcb3dafab7b,
        type: 3}
      propertyPath: m_LocalRotation.w
      value: 0.0000013783574
      objectReference: {fileID: 0}
    - target: {fileID: 4887314735809503889, guid: 2c0b2c26c272418429d3bbcb3dafab7b,
        type: 3}
      propertyPath: m_RootOrder
      value: 0
      objectReference: {fileID: 0}
    - target: {fileID: 4887314735809503889, guid: 2c0b2c26c272418429d3bbcb3dafab7b,
        type: 3}
      propertyPath: m_LocalEulerAnglesHint.x
      value: -90.00001
      objectReference: {fileID: 0}
    - target: {fileID: 4887314735809503889, guid: 2c0b2c26c272418429d3bbcb3dafab7b,
        type: 3}
      propertyPath: m_LocalEulerAnglesHint.y
      value: 0
      objectReference: {fileID: 0}
    - target: {fileID: 4887314735809503889, guid: 2c0b2c26c272418429d3bbcb3dafab7b,
        type: 3}
      propertyPath: m_LocalEulerAnglesHint.z
      value: -180.00002
      objectReference: {fileID: 0}
    - target: {fileID: 4887314735809503889, guid: 2c0b2c26c272418429d3bbcb3dafab7b,
        type: 3}
      propertyPath: m_LocalScale.z
      value: 148.9874
      objectReference: {fileID: 0}
    - target: {fileID: 4920503484382305068, guid: 2c0b2c26c272418429d3bbcb3dafab7b,
        type: 3}
      propertyPath: m_Name
      value: bush Tall
      objectReference: {fileID: 0}
    m_RemovedComponents:
    - {fileID: 517797585822816050, guid: 2c0b2c26c272418429d3bbcb3dafab7b, type: 3}
  m_SourcePrefab: {fileID: 100100000, guid: 2c0b2c26c272418429d3bbcb3dafab7b, type: 3}
--- !u!1 &3674117385494972138 stripped
GameObject:
  m_CorrespondingSourceObject: {fileID: 4920503484382305068, guid: 2c0b2c26c272418429d3bbcb3dafab7b,
    type: 3}
  m_PrefabInstance: {fileID: 8553520497343471046}
  m_PrefabAsset: {fileID: 0}
